<svg width="36" height="36" viewBox="0 0 36 36" fill="none" xmlns="http://www.w3.org/2000/svg">
<path d="M33.5 36H24.5C23.119 36 22 34.9671 22 33.6923V25.3846C22 24.3646 21.105 23.5385 20 23.5385H16C14.895 23.5385 14 24.3646 14 25.3846V33.6923C14 34.9671 12.881 36 11.5 36H2.5C1.119 36 0 34.9671 0 33.6923V16.0735C0 13.9514 1.054 11.9465 2.859 10.6338L17.071 0.296308C17.616 -0.0987692 18.384 -0.0987692 18.928 0.296308L33.142 10.6338C34.947 11.9465 36 13.9505 36 16.0717V33.6923C36 34.9671 34.881 36 33.5 36Z" fill="#592615"/>
</svg>
